<?xml version="1.0" encoding="utf-8"?>
<!-- Generator: Adobe Illustrator 21.0.2, SVG Export Plug-In . SVG Version: 6.00 Build 0)  -->
<svg version="1.1" id="Livello_1" xmlns="http://www.w3.org/2000/svg" xmlns:xlink="http://www.w3.org/1999/xlink" x="0px" y="0px"
	 viewBox="0 0 2559 394" style="enable-background:new 0 0 2559 394;" xml:space="preserve">
<style type="text/css">
	.st0{display:none;}
	.st1{display:inline;fill:none;stroke:#000000;stroke-width:4;stroke-miterlimit:10;}
	.st2{fill:none;stroke:#000000;stroke-width:4;stroke-miterlimit:10;}
	.st3{fill:none;stroke:#000000;stroke-width:4;stroke-miterlimit:10;stroke-dasharray:12;}
	.st4{fill:none;stroke:#000000;stroke-width:4;stroke-miterlimit:10;stroke-dasharray:11.7209,11.7209;}
	.st5{fill:none;stroke:#000000;stroke-width:4;stroke-miterlimit:10;stroke-dasharray:12.2326,12.2326;}
	.st6{fill:none;stroke:#000000;stroke-width:4;stroke-miterlimit:10;stroke-dasharray:11.8947,11.8947;}
	.st7{fill:#FFFFFF;stroke:#000000;stroke-miterlimit:10;}
	.st8{opacity:0.71;fill:none;stroke:#000000;stroke-width:4;stroke-miterlimit:10;enable-background:new    ;}
	.st9{display:none;fill:none;stroke:#000000;stroke-width:4;stroke-miterlimit:10;}
	.st10{fill:none;stroke:#ED1C24;stroke-width:4;stroke-miterlimit:10;}
</style>
<g id="Altro" class="st0">
	
		<image style="display:inline;overflow:visible;enable-background:new    ;" width="6397" height="984" id="Immagine_Plastico_1_" xlink:href="Mappa Plastico - 1° Piano.jpg"  transform="matrix(0.4 0 0 0.4 -2.697574e-03 1.753618e-02)">
	</image>
	<circle id="Piattaforma_Girevole" class="st1" cx="2172" cy="171" r="78"/>
</g>
<g id="Binari_Fissi_Rettilinei">
	<g>
		<line class="st2" x1="72" y1="16" x2="244" y2="16"/>
	</g>
	<line class="st2" x1="301" y1="16" x2="1105" y2="16"/>
	<line class="st2" x1="1163" y1="39" x2="358" y2="39"/>
	<line class="st2" x1="574" y1="106" x2="1058" y2="106"/>
	<line class="st2" x1="631" y1="129" x2="1058" y2="129"/>
	<line class="st2" x1="469" y1="222" x2="1143" y2="222"/>
	<line class="st2" x1="434" y1="267" x2="1143" y2="267"/>
	<line class="st2" x1="416" y1="307" x2="1143" y2="307"/>
	<line id="Prova_Linea_3" class="st3" x1="385" y1="363" x2="1163" y2="363"/>
	<line class="st2" x1="272" y1="385" x2="1163" y2="385"/>
	<line class="st2" x1="1335" y1="39" x2="1361" y2="39"/>
	<line class="st2" x1="1419" y1="39" x2="2068" y2="39"/>
	<line class="st2" x1="1534" y1="62" x2="1952" y2="62"/>
	<line class="st2" x1="1656" y1="112" x2="1831" y2="112"/>
	<line class="st2" x1="1283" y1="89" x2="1484" y2="89"/>
	<line class="st2" x1="1283" y1="112" x2="1541" y2="112"/>
	<line class="st2" x1="1227" y1="232" x2="1575" y2="232"/>
	<line class="st2" x1="1227" y1="254" x2="1633" y2="254"/>
	<line class="st2" x1="1227" y1="277" x2="1633" y2="277"/>
	<line class="st2" x1="1251" y1="300" x2="1617" y2="300"/>
	<line class="st2" x1="1268" y1="323" x2="1560" y2="323"/>
	<line class="st2" x1="1303" y1="339" x2="1521" y2="339"/>
	<line class="st2" x1="1636" y1="339" x2="1942" y2="339"/>
	<line class="st2" x1="1521" y1="362" x2="1750" y2="362"/>
	<line class="st2" x1="1808" y1="362" x2="2068" y2="362"/>
	<line class="st2" x1="2068" y1="362" x2="2125" y2="362"/>
	<line class="st2" x1="1163" y1="385" x2="1220" y2="385"/>
	<line class="st2" x1="1406" y1="385" x2="1808" y2="385"/>
	<line class="st2" x1="1866" y1="385" x2="2068" y2="385"/>
	<line class="st2" x1="1919" y1="123" x2="2086" y2="123"/>
	<line class="st2" x1="1835" y1="157" x2="2086" y2="157"/>
	<line class="st2" x1="1778" y1="180" x2="1993" y2="180"/>
	<line class="st2" x1="2050" y1="180" x2="2093" y2="180"/>
	<line class="st2" x1="1835" y1="203" x2="2086" y2="203"/>
	<line class="st2" x1="1863" y1="254" x2="1978" y2="254"/>
	<line class="st2" x1="112" y1="95" x2="279" y2="95"/>
	<line class="st2" x1="279" y1="116" x2="112" y2="116"/>
	<line class="st2" x1="62" y1="161" x2="234" y2="161"/>
	<line class="st2" x1="180" y1="183" x2="62" y2="183"/>
	<line class="st2" x1="244" y1="203" x2="83" y2="296"/>
	<line class="st2" x1="289" y1="187" x2="169" y2="344"/>
	<line class="st2" x1="299" y1="209" x2="187" y2="354"/>
	<line class="st2" x1="1629" y1="194" x2="2068" y2="373"/>
	<line class="st2" x1="1747" y1="254" x2="1805" y2="254"/>
	<line class="st2" x1="2032" y1="300" x2="2205" y2="300"/>
	<line class="st2" x1="2037" y1="325" x2="2205" y2="325"/>
	<line class="st2" x1="2357" y1="223" x2="2428" y2="50"/>
	<line class="st2" x1="2351" y1="219" x2="2418" y2="46"/>
	<line class="st2" x1="1732" y1="300" x2="1789" y2="300"/>
	<line class="st2" x1="1847" y1="300" x2="1917" y2="300"/>
	<line class="st2" x1="357" y1="50" x2="466" y2="95"/>
	<line class="st2" x1="407" y1="106" x2="465" y2="106"/>
	<line class="st2" x1="520" y1="129" x2="572" y2="129"/>
	<line class="st3" x1="2215" y1="10" x2="2360" y2="10"/>
	<line class="st3" x1="2243" y1="385" x2="2359" y2="385"/>
	<g id="Prova_Linea_2">
		<g>
			<line class="st2" x1="520" y1="180" x2="526" y2="180"/>
			<line class="st4" x1="537.7" y1="180" x2="1024.1" y2="180"/>
			<line class="st2" x1="1030" y1="180" x2="1036" y2="180"/>
		</g>
	</g>
	<line class="st2" x1="1541" y1="184" x2="1541" y2="184"/>
	<g>
		<g>
			<line class="st2" x1="1036" y1="180" x2="1042" y2="180"/>
			<line class="st5" x1="1054.2" y1="180" x2="1561.9" y2="180"/>
			<line class="st2" x1="1568" y1="180" x2="1574" y2="180"/>
		</g>
	</g>
	<line class="st2" x1="1633" y1="180" x2="1662" y2="180"/>
	<line class="st2" x1="1534" y1="73" x2="1601" y2="101"/>
	<line class="st2" x1="1360" y1="39" x2="1362" y2="39"/>
	<line class="st2" x1="1114" y1="94" x2="1167" y2="72"/>
	<line class="st2" x1="407" y1="129" x2="465" y2="129"/>
	<line class="st2" x1="316" y1="341" x2="342" y2="326"/>
	<line class="st2" x1="1636" y1="328" x2="1676" y2="311"/>
	<line class="st2" x1="2032" y1="289" x2="2112" y2="256"/>
	<line class="st2" x1="1348" y1="62" x2="1419" y2="62"/>
	<path class="st2" d="M2112,256c9.7-4.7,18.1-9.3,25-14"/>
	<g id="Prova_Linea">
		<g>
			<line class="st2" x1="1720" y1="157" x2="1714" y2="157"/>
			<line class="st6" x1="1702.1" y1="157" x2="589.9" y2="157"/>
			<line class="st2" x1="584" y1="157" x2="578" y2="157"/>
		</g>
	</g>
	<path class="st2" d="M521,168c19-7.7,38-11.4,57-11"/>
	<line class="st3" x1="2088" y1="199" x2="2088" y2="206.8"/>
	<line class="st3" x1="2205" y1="296" x2="2205" y2="303.8"/>
	<line class="st3" x1="2205" y1="321" x2="2205" y2="328.8"/>
	<line class="st3" x1="2424.4" y1="48.4" x2="2431.6" y2="51.3"/>
	<line class="st3" x1="2414.4" y1="44.4" x2="2421.6" y2="47.3"/>
	<line class="st3" x1="2086" y1="153" x2="2086" y2="160.8"/>
	<line class="st3" x1="2086" y1="119" x2="2086" y2="126.8"/>
	<line class="st3" x1="2086" y1="97" x2="2086" y2="104.8"/>
	<line class="st3" x1="1227" y1="228" x2="1227" y2="235.8"/>
	<line class="st3" x1="1227" y1="250" x2="1227" y2="257.8"/>
	<line class="st3" x1="1227" y1="273" x2="1227" y2="280.8"/>
	<line class="st3" x1="1249" y1="296" x2="1249" y2="303.8"/>
	<line class="st3" x1="1268" y1="319" x2="1268" y2="326.8"/>
	<line class="st3" x1="1303" y1="335" x2="1303" y2="342.8"/>
	<line class="st3" x1="1283" y1="85" x2="1283" y2="92.8"/>
	<line class="st3" x1="1283" y1="108" x2="1283" y2="115.8"/>
	<line class="st3" x1="72" y1="12" x2="72" y2="19.8"/>
	<line class="st3" x1="112" y1="91" x2="112" y2="98.8"/>
	<line class="st3" x1="112" y1="112" x2="112" y2="119.8"/>
	<line class="st3" x1="62" y1="157" x2="62" y2="164.8"/>
	<line class="st3" x1="62" y1="179" x2="62" y2="186.8"/>
	<line class="st3" x1="80.1" y1="293.5" x2="83.9" y2="300.3"/>
	<line class="st3" x1="165.9" y1="341.5" x2="172.1" y2="346.2"/>
	<line class="st3" x1="185" y1="350.4" x2="191" y2="355.3"/>
	<line class="st3" x1="1143" y1="303" x2="1143" y2="310.8"/>
	<line class="st3" x1="1143" y1="263" x2="1143" y2="270.8"/>
	<line class="st3" x1="1143" y1="218" x2="1143" y2="225.8"/>
	<line class="st3" x1="1942" y1="335" x2="1942" y2="342.8"/>
	<line class="st3" x1="2025" y1="273" x2="2025" y2="280.8"/>
</g>
<g id="Binari_Fissi_Curve">
	<g>
		<path class="st2" d="M36,213c1.6-86.5,68.4-153,150-151"/>
	</g>
	<g>
		<path class="st2" d="M36.3,213c-0.8,81.5,67,148.1,151.7,149"/>
	</g>
	<g>
		<path class="st2" d="M13,213C12.4,117.4,89.7,39.6,185.8,39"/>
	</g>
	<g>
		<path class="st2" d="M187,385c-95.6,0.6-173.4-76.3-174-172"/>
	</g>
	<path class="st2" d="M186,362c28,0,54-10,75-20c19-10,47-38,55-55"/>
	<path class="st2" d="M330,262"/>
	<line class="st2" x1="316" y1="287" x2="330" y2="262"/>
	<path class="st2" d="M389,200c-21,9-50,41-59,62"/>
	<path class="st2" d="M243,50"/>
	<path class="st2" d="M186,61"/>
	<path class="st2" d="M189,69"/>
	<path class="st2" d="M186,62c10.7-0.3,17.6-0.6,20-1"/>
	<path class="st2" d="M1974,311c18.4,8.8,39.5,13.3,63,14"/>
	<path class="st2" d="M180,183c17.8-0.7,54.6-9.8,60-13"/>
	<path class="st2" d="M244,203c17.6-10.1,31.8-23.6,44-39"/>
	<path class="st2" d="M299,209c13.4-16.9,29.2-28.2,44.8-38l5.2-3"/>
	<path class="st2" d="M345,169"/>
	<path class="st2" d="M348,168"/>
	<path class="st2" d="M345,169"/>
	<path class="st2" d="M349,168c23.8-12.6,49.1-17.5,79-18"/>
	<path class="st2" d="M428,150c12.1-1.2,25-4.4,38-10"/>
	<line class="st2" x1="289" y1="187" x2="302" y2="172"/>
	<path class="st2" d="M301,173c11-11,22.7-20.3,34-26"/>
	<path class="st2" d="M333,148c27.5-13,58.6-19.3,74-19"/>
	<path class="st2" d="M350,280c7.6-9.8,17.1-19.3,28-28"/>
	<path class="st2" d="M378,252c9.1-6.9,20.6-13.2,34-19"/>
	<path class="st2" d="M412,233c16.6-7.1,35.4-11.1,57-11"/>
	<path class="st2" d="M389,200c21.8-12.7,46.6-19.7,75-20"/>
	<path class="st2" d="M206,61c13.4-2,25.3-6.8,37-11"/>
	<path class="st2" d="M191,73"/>
	<path class="st2" d="M325,130c8.7-5.4,17.1-9.9,25-13"/>
	<path class="st2" d="M360,287c8.8-5.2,19.1-10.1,35-14"/>
	<path class="st2" d="M395,273c10.8-3.3,24.4-5.6,40-6"/>
	<path class="st2" d="M342,326c11.8-6.4,25.5-11.2,35-14"/>
	<path class="st2" d="M377,312c13.6-4.3,24.4-5.6,39-5"/>
	<path class="st2" d="M1163,363c20.3,0,38.6,4,55,11"/>
	<path class="st2" d="M1280,53c-41.5,19.1-66.2,44.9-81,72"/>
	<path class="st2" d="M1199,125c-16.7,30.7-24.1,59.6-23,87"/>
	<path class="st2" d="M1176,211c-0.9,29,6.1,58,23,87"/>
	<path class="st2" d="M1199,298c18.3,30.6,40.4,51.8,64,64"/>
	<path class="st2" d="M1263,362c12.8,7.6,26.9,13.5,43,17"/>
	<path class="st2" d="M1560,323c16.7,0.3,35.6-3.2,57-11"/>
	<path class="st2" d="M1484,89c17.7-0.8,37.7,3.7,58,11"/>
	<path class="st2" d="M1831,112c22.6-0.6,45.3-5.9,68-17"/>
	<line class="st2" x1="1899" y1="95" x2="1952" y2="73"/>
	<line class="st2" x1="2067" y1="62" x2="2125" y2="62"/>
	<path class="st2" d="M2125,62c55.7,1.3,101.9,28.9,130,75"/>
	<path class="st2" d="M2255,137c13.6,26,19.9,50.9,19,75"/>
	<path class="st2" d="M2125,39c66,2.3,115.3,31.6,149,86"/>
	<path class="st2" d="M2274,125c32.2,59.6,30.4,117.1,1,173"/>
	<path class="st2" d="M2275,298c-29.7,44.5-58.4,62.9-90,76"/>
	<path class="st3" d="M2360,10c64.1,2.5,113.8,31.1,149,86"/>
	<path class="st3" d="M2508.8,96c14.6,23.9,21.9,53.2,23.3,86.9l0.1,29"/>
	<path class="st3" d="M2533,190"/>
	<path id="Prova_Curva" class="st3" d="M2532,212c0.4,62.3-30.5,114.9-87,150"/>
	<path class="st3" d="M2445,362c-22.6,13.4-51.3,21.1-86,23"/>
	<path class="st2" d="M2243,373c12.1-4.6,23.8-11,34-19"/>
	<path class="st2" d="M2277,354c25-19.6,42.8-48.1,56-80"/>
	<path class="st2" d="M2036,254c31.5-0.3,59.1-8.2,82-25"/>
	<path class="st2" d="M1915,112c16.9-5.9,36.3-10.1,60.2-11H2086"/>
	<path class="st2" d="M1058,106c20.3-0.5,38.9-4.5,56-12"/>
	<path class="st2" d="M1058,129c66.7-3.8,93.1-21.6,114-46"/>
	<path class="st2" d="M1105,16c21.6,0.2,41.6,3.8,58,11"/>
	<path class="st2" d="M1216,143"/>
	<path class="st2" d="M1199,213c0-28,6.5-55.4,20-75.5c28.9-47.9,71.3-74.1,129-75.5"/>
	<path class="st2" d="M1199,213c1.2,57.7,28.4,101,75,129"/>
	<path class="st2" d="M1274,342c21,11.8,44.6,18.8,71.2,20h60.8"/>
	<line class="st2" x1="1690" y1="277" x2="1732" y2="277"/>
	<path class="st2" d="M1732,277c20.5,0.2,39.5,4.2,57,12"/>
	<path class="st2" d="M1863,266c18.3,7.1,37.3,10.9,57,11h86"/>
	<path class="st2" d="M1928,278"/>
	<path class="st2" d="M1778,191c17.1,7.5,35.9,11.8,57,12"/>
	<line class="st2" x1="1835" y1="146" x2="1862" y2="134"/>
	<path class="st7" d="M187.5,183.5"/>
	<path class="st2" d="M2274,212c1,51.9-28.1,103.3-75,130"/>
	<path class="st2" d="M2125,362c27.7-0.8,52.5-7.2,74-20"/>
	<path class="st2" d="M1574,232c22-0.1,41.6,3.7,59,11"/>
	<line class="st2" x1="2006" y1="277" x2="2024" y2="277"/>
</g>
<g id="Scambi">
	<line id="S1Destra" class="st2" x1="185" y1="39" x2="243" y2="39"/>
	<path id="S1Sinistra" class="st8" d="M185,39c19.6,0.3,39-3.3,58-12"/>
	<line id="S2Destra" class="st2" x1="301" y1="16" x2="244" y2="16"/>
	<path id="S2Sinistra" class="st2" d="M301,16c-21,0.4-40.2,4.3-58,11"/>
	<path id="S3Destra" class="st2" d="M243,50c19-7.5,38.3-11.5,58-11"/>
	<line id="S3Sinistra" class="st2" x1="240" y1="39" x2="301" y2="39"/>
	<path id="S4Destra" class="st2" d="M301,39c20.7-0.5,39.1,3.8,56,11"/>
	<line id="S4Sinistra" class="st2" x1="301" y1="39" x2="358" y2="39"/>
	<path id="S5Destra" class="st9" d="M278,95c17.2,0.3,43.2,5,73,11"/>
	<path id="S5Sinistra" class="st2" d="M279,116c25.2-1.7,49-6.4,72-10"/>
	<line id="S6Destra" class="st2" x1="351" y1="106" x2="411.5" y2="106"/>
	<path id="S6Sinistra" class="st9" d="M350,117c19.3-8.1,38.6-11.4,58-11"/>
	<line id="S7Sinistra" class="st2" x1="291" y1="149" x2="238" y2="171"/>
	<path id="S7Destra" class="st2" d="M234,161c23.4-0.7,42.7-4.8,57-12"/>
	<path id="S8Destra" class="st2" d="M291,149c11.8-5.8,23.1-12.2,34-19"/>
	<path id="S8Sinistra" class="st2" d="M288,164c10-12.7,22-24.5,37-34"/>
	<line id="S9Destra" class="st2" x1="186" y1="385" x2="272" y2="385"/>
	<path id="S9Sinistra" class="st2" d="M186,385c29,0,51.2-4.2,68-12"/>
	<line id="S10Destra" class="st2" x1="254" y1="373" x2="316" y2="341"/>
	<path id="S10Sinistra" class="st2" d="M254,373c26.6-13.3,46.8-29,61-47"/>
	<path id="S11Destra" class="st2" d="M315,326c14.4-16.8,29.3-30.4,45-39"/>
	<line id="S11Sinistra" class="st2" x1="315" y1="326" x2="350" y2="280"/>
	<path id="S12Destra" class="st2" d="M518,106c-17.3-1-34.7-4.7-52-11"/>
	<line id="S12Sinistra" class="st2" x1="465" y1="106" x2="518" y2="106"/>
	<path id="S13Destra" class="st2" d="M518,106c18.1,0.1,36.4,3.9,55,12"/>
	<line id="S13Sinistra" class="st2" x1="518" y1="106" x2="574" y2="106"/>
	<line id="S14Destra" class="st2" x1="520" y1="129" x2="465" y2="129"/>
	<path id="S14Sinistra" class="st2" d="M466,140c15.3-7,33.6-10.3,54-11"/>
	<path id="S15Destra" class="st2" d="M631,129c-21.9-0.7-41.2-4.3-58-11"/>
	<line id="S15Sinistra" class="st2" x1="572" y1="129" x2="631" y2="129"/>
	<line id="S16Destra" class="st2" x1="464" y1="180" x2="520" y2="180"/>
	<path id="S16Sinistra" class="st2" d="M464,180c25.1-2,43.9-6,57-12"/>
	<line id="S17Sinistra" class="st2" x1="1221" y1="39" x2="1163" y2="39"/>
	<path id="S17Destra" class="st2" d="M1163,27c13.6,7.1,34,10.5,58,12"/>
	<line id="S18Destra" class="st2" x1="1167" y1="72" x2="1221" y2="50"/>
	<path id="S18Sinistra" class="st2" d="M1221,50c-17.4,7.4-33.7,18.4-49,33"/>
	<line id="S19Destra" class="st2" x1="1221" y1="39" x2="1278" y2="39"/>
	<path id="S19Sinistra" class="st2" d="M1221,50c22.6-8.4,39.8-11.2,57-11"/>
	<line id="S20Destra" class="st2" x1="1278" y1="39" x2="1335" y2="39"/>
	<path id="S20Sinistra" class="st2" d="M1335,39c-18.5,2.3-36.8,6.7-55,14"/>
	<line id="S21Sinistra" class="st2" x1="1361" y1="39" x2="1420" y2="39"/>
	<path id="S21Destra" class="st2" d="M1361,39c24-0.1,41.7,4.3,59,12"/>
	<line id="S22Sinistra" class="st2" x1="1419" y1="62" x2="1477" y2="62"/>
	<path id="S22Destra" class="st2" d="M1420,51c20.7,7.8,39.5,11,57,11"/>
	<line id="S23Sinistra" class="st2" x1="1477" y1="62" x2="1534" y2="62"/>
	<path id="S23Destra" class="st2" d="M1477,62c20.4-0.2,39.5,3.4,57,11"/>
	<line id="S24Sinistra" class="st2" x1="1220" y1="385" x2="1306" y2="385"/>
	<path id="S24Destra" class="st2" d="M1218,374c19.8,9.3,50.2,12.3,88,11"/>
	<line id="S25Sinistra" class="st2" x1="1306" y1="385" x2="1350" y2="385"/>
	<path id="S25Destra" class="st2" d="M1306,379c13.2,2.4,28.1,4.4,44,6"/>
	<line id="S26Destra" class="st2" x1="1350" y1="385" x2="1406" y2="385"/>
	<path id="S26Sinistra" class="st2" d="M1350,385c19.8-0.1,38.4-4.3,56-12"/>
	<line id="S27Destra" class="st2" x1="1406" y1="362" x2="1464" y2="362"/>
	<path id="S27Sinistra" class="st2" d="M1406,373c21.9-9.1,40.9-12.1,58-11"/>
	<line id="S28Destra" class="st2" x1="1464" y1="362" x2="1521" y2="362"/>
	<path id="S28Sinistra" class="st2" d="M1464,362c26.8-1.7,45.2-5.9,57-12"/>
	<line id="S29Destra" class="st2" x1="1521" y1="339" x2="1579" y2="339"/>
	<path id="S29Sinistra" class="st2" d="M1521,350c20.5-8,39.7-11.4,58-11"/>
	<line id="S30Destra" class="st2" x1="1579" y1="339" x2="1636" y2="339"/>
	<path id="S30Sinistra" class="st2" d="M1579,339c27-1.4,45.3-5.3,57-11"/>
	<line id="S31Sinistra" class="st2" x1="1541" y1="112" x2="1599" y2="112"/>
	<path id="S31Destra" class="st2" d="M1542,100c20,8.6,38.7,11.6,57,12"/>
	<line id="S32Sinistra" class="st2" x1="1598" y1="112" x2="1656" y2="112"/>
	<path id="S32Destra" class="st2" d="M1601,101c18.1,6.6,36.7,10.4,56,11"/>
	<line id="S33Sinistra" class="st2" x1="1574" y1="180" x2="1633" y2="180"/>
	<path id="S33Destra" class="st2" d="M1574,180c27.3,3.3,43.8,8.1,55,14"/>
	<line id="S34Destra" class="st2" x1="1720" y1="157" x2="1778" y2="157"/>
	<path id="S34Sinistra" class="st2" d="M1720,169c20.9-8.7,40.2-12.8,58-12"/>
	<line id="S35Destra" class="st2" x1="1778" y1="157" x2="1835" y2="157"/>
	<path id="S35Sinistra" class="st2" d="M1777,157c28.1-1.7,46.8-5.9,58-11"/>
	<line id="S36Destra" class="st2" x1="1662" y1="180" x2="1720" y2="180"/>
	<path id="S36Sinistra" class="st2" d="M1662,180c31-2.5,50.4-7.7,58-11"/>
	<line id="S37Sinistra" class="st2" x1="1720" y1="180" x2="1778" y2="180"/>
	<path id="S37Destra" class="st2" d="M1720,180c22.7,0.5,41.9,4.3,58,11"/>
	<line id="S38Sinistra" class="st2" x1="1633" y1="254" x2="1691" y2="254"/>
	<path id="S38Destra" class="st2" d="M1633,243c16.4,7.2,35.4,10.9,58,11"/>
	<line id="S39Destra" class="st2" x1="1691" y1="254" x2="1747" y2="254"/>
	<path id="S39Sinistra" class="st2" d="M1690,266c20.1-7.6,39.5-11.6,58-12"/>
	<line id="S40Destra" class="st2" x1="1633" y1="277" x2="1690" y2="277"/>
	<path id="S40Sinistra" class="st2" d="M1633,277c23-1,42.3-4.6,57-11"/>
	<line id="S41Destra" class="st2" x1="1617" y1="300" x2="1675" y2="300"/>
	<path id="S41Sinistra" class="st2" d="M1617,312c18.4-6.9,37.8-10.9,58-12"/>
	<line id="S42Destra" class="st2" x1="1675" y1="300" x2="1733" y2="300"/>
	<path id="S42Sinistra" class="st2" d="M1676,311c17.4-7.2,36.1-10.9,56-11"/>
	<line id="S43Sinistra" class="st2" x1="1789" y1="300" x2="1847" y2="300"/>
	<path id="S43Destra" class="st2" d="M1789,289c15.7,6.9,35,10.5,58,11"/>
	<line id="S44Sinistra" class="st2" x1="1750" y1="362" x2="1808" y2="362"/>
	<path id="S44Destra" class="st2" d="M1750,362c22.2,0.5,41.7,4.1,58,11"/>
	<line id="S45Sinistra" class="st2" x1="1808" y1="385" x2="1867" y2="385"/>
	<path id="S45Destra" class="st2" d="M1808,373c18.6,7.5,38,11.4,58,12"/>
	<line id="S46Sinistra" class="st2" x1="1862" y1="134" x2="1915" y2="112"/>
	<path id="S46Destra" class="st2" d="M1862,134c16.9-7,35.9-10.7,57-11"/>
	<line id="S47Destra" class="st2" x1="1952" y1="62" x2="2009" y2="62"/>
	<path id="S47Sinistra" class="st2" d="M1952,73c20.4-7.9,39.3-11.3,57-11"/>
	<line id="S48Destra" class="st2" x1="2009" y1="62" x2="2067" y2="62"/>
	<path id="S48Sinistra" class="st2" d="M2009,62c28.1-2.7,48.3-7.5,58-12"/>
	<line id="S49Destra" class="st2" x1="2068" y1="39" x2="2125" y2="39"/>
	<path id="S49Sinistra" class="st2" d="M2067,50c17-7.4,36.9-11.3,58-11"/>
	<line id="S50OFF" class="st2" x1="1993" y1="180" x2="2050" y2="180"/>
	<line id="S50ON" class="st10" x1="1993" y1="180" x2="2050" y2="180"/>
	<line id="S51Sinistra" class="st2" x1="1805" y1="254" x2="1863" y2="254"/>
	<path id="S51Destra" class="st2" d="M1804,254c21.9,0.5,41.6,4.5,59,12"/>
	<line id="S52OFF" class="st2" x1="1978" y1="254" x2="2036" y2="254"/>
	<line id="S52ON" class="st10" x1="1978" y1="254" x2="2036" y2="254"/>
	<line id="S53Sinistra" class="st2" x1="1917" y1="300" x2="1975" y2="300"/>
	<path id="S53Destra" class="st2" d="M1917,300c21,0.1,40,3.7,57,11"/>
	<line id="S54Destra" class="st2" x1="1975" y1="300" x2="2032" y2="300"/>
	<path id="S54Sinistra" class="st2" d="M1975,300c24.4-1.6,42.9-5.4,57-11"/>
	<line id="S55Sinistra" class="st2" x1="2068" y1="385" x2="2124" y2="385"/>
	<path id="S55Destra" class="st2" d="M2068,373c20.6,9.6,39,12.8,56,12"/>
	<line id="S56Destra" class="st2" x1="2124" y1="385" x2="2185" y2="385"/>
	<path id="S56Sinistra" class="st2" d="M2124,385c25.8-1.9,47.2-5.7,61-11"/>
	<line id="S57Destra" class="st2" x1="2185" y1="385" x2="2243" y2="385"/>
	<path id="S57Sinistra" class="st2" d="M2185,385c29.3-4.2,48.5-8.1,58-12"/>
	<path id="S58Sinistra" class="st2" d="M2333,274c5-19.2,18-55,18-55"/>
	<path id="S58Destra" class="st2" d="M2357,223c-7.1,18-24,51-24,51"/>
</g>
</svg>
